Iterations (start->goal) required: 58
Initial state:  [4, 6, 1, 3, 8, 9, 2, 7, 5]

Iterations (meet2) required: 1295
Initial state:  [8, 1, 5, 4, 9, 6, 3, 7, 2]

Iterations (goal->start) required: 892
Initial state:  [7, 1, 4, 2, 9, 5, 3, 8, 6]

Iterations (goal->start) required: 54
Initial state:  [1, 7, 2, 8, 6, 3, 4, 5, 9]


