Node (0, 1, 1) has neighbours: [(1, 1, 0), (0, 2, 0), (2, 1, 0)] with numbering 0
Node (2, 1, 1) has neighbours: [(2, 2, 0)] with numbering 1
Node (2, 1, 0) has neighbours: [(1, 1, 1), (2, 0, 1), (0, 1, 1)] with numbering 2
Node (0, 2, 0) has neighbours: [(0, 1, 1), (0, 0, 1)] with numbering 3
Node (1, 0, 0) has neighbours: [(0, 0, 1)] with numbering 4
Node (1, 1, 0) has neighbours: [(0, 1, 1), (1, 0, 1)] with numbering 5
Node (0, 0, 1) has neighbours: [(1, 0, 0), (0, 1, 0), (2, 0, 0), (0, 2, 0)] with numbering 6
Node (1, 2, 1) has neighbours: [(2, 2, 0)] with numbering 7
Node (2, 2, 0) has neighbours: [(1, 2, 1), (2, 1, 1), (0, 2, 1), (2, 0, 1)] with numbering 8
Node (1, 1, 1) has neighbours: [(2, 1, 0), (1, 2, 0)] with numbering 9
Node (0, 2, 1) has neighbours: [(1, 2, 0), (2, 2, 0)] with numbering 10
Node (0, 1, 0) has neighbours: [(0, 0, 1)] with numbering 11
Node (2, 0, 1) has neighbours: [(2, 1, 0), (2, 2, 0)] with numbering 12
Node (1, 2, 0) has neighbours: [(0, 2, 1), (1, 1, 1), (1, 0, 1)] with numbering 13
Node (1, 0, 1) has neighbours: [(2, 0, 0), (1, 1, 0), (1, 2, 0)] with numbering 14
Node (2, 0, 0) has neighbours: [(1, 0, 1), (0, 0, 1)] with numbering 15
