0 , 3.23228891738
1000 , 2.02395160049
2000 , 2.02040532093
3000 , 2.01471660709
4000 , 2.01346772428
5000 , 2.01311068263
6000 , 2.01294889435
7000 , 2.0128579829
8000 , 2.01279932223
9000 , 2.01275745195
10000 , 2.01272491805
11000 , 2.01269736534
12000 , 2.01267145982
13000 , 2.01264342952
14000 , 2.01260675654
15000 , 2.01254534843
16000 , 2.01240294885
17000 , 2.01185362099
18000 , 2.00547164041
19000 , 1.82710042808
20000 , 0.846698084184
21000 , 0.783953738862
22000 , 0.586133985956
23000 , 0.0527050265576
24000 , 0.0263590520669
25000 , 0.0178866275094
26000 , 0.0136230611231
27000 , 0.0110261582245