0 , 3.04417646636
1000 , 2.02166975053
2000 , 2.01504483538
3000 , 2.01362163049
4000 , 2.01319982422
5000 , 2.01301196637
6000 , 2.01290732863
7000 , 2.01284093993
8000 , 2.01279513562
9000 , 2.01276163031
10000 , 2.01273603492
11000 , 2.01271580883
12000 , 2.01269937779
13000 , 2.01268571106
14000 , 2.01267410096
15000 , 2.01266403971
16000 , 2.01265514613
17000 , 2.01264711893
18000 , 2.0126397044
19000 , 2.01263267081
20000 , 2.01262578408
21000 , 2.01261877888
22000 , 2.01261131624
23000 , 2.0126029111
24000 , 2.01259279248
25000 , 2.01257960305
26000 , 2.01256067214
27000 , 2.01252997106
28000 , 2.01247099549
29000 , 2.01232204814
30000 , 2.01165287078
31000 , 1.9958288846
32000 , 1.78931445704
33000 , 1.74775340935
34000 , 1.31263503449
35000 , 0.798651592322
36000 , 0.775373309445
37000 , 0.767505031466
38000 , 0.763367498534
39000 , 0.759287938762
40000 , 0.307388277224
41000 , 0.0437539216865
42000 , 0.0227149738296
43000 , 0.0155678461856
44000 , 0.0119700294502